"id","payment","amount"
"2413fb3709b05939f04cf2e92f7d0897fc2596f9ad0b8a9ea855c7bfebaae892",1,1997
"2eafdcb6ccc545343c91e1bc1c6c5b1ebf9d1b6cc02933f1f41110b02415bf1e",0,23452346
"2eafdcb6ccc545343c91e1bc1c6c5b1ebf9d1b6cc02933f1f41110b02415bf1e",1,19234523497
"2413fb3709b05939f04cf2e92f7d0897fc2596f9ad0b8a9ea855c7bfebaae892",0,2